Flattens the data returned by the PatentsView API — clean_patents • patentsview2
…
clean_patents(pvresult)

    Arguments

pvresult

    Value

    a data frame of 38 fields

    Examples

pvresult <- pv_post("2024-01-01", cpc="G16H")
clean_patents(pvresult)
#> # A tibble: 503 × 38
#>    patent_id patent_title    patent_type patent_date patent_year patent_abstract
#>    <chr>     <chr>           <chr>       <chr>             <int> <chr>          
#>  1 12001464  System and met… utility     2024-06-04         2024 A system for m…
#>  2 12052206  Systems and me… utility     2024-07-30         2024 An example sys…
#>  3 12086990  Systems and me… utility     2024-09-10         2024 A system and m…
#>  4 12089943  Electrocardiog… utility     2024-09-17         2024 An apparatus i…
#>  5 12094010  Intelligent au… utility     2024-09-17         2024 A system and m…
#>  6 12097287  Dry powder for… utility     2024-09-24         2024 Provided herei…
#>  7 12106832  Distributed co… utility     2024-10-01         2024 A distributed …
#>  8 12106836  Biometrcially … utility     2024-10-01         2024 The present di…
#>  9 12116640  Methods for ea… utility     2024-10-15         2024 Disclosed here…
#> 10 12118723  Compute system… utility     2024-10-15         2024 A method of op…
#> # ℹ 493 more rows
#> # ℹ 32 more variables:
#> #   patent_cpc_current_group_average_patent_processing_days <int>,
#> #   withdrawn <lgl>, patent_detail_desc_length <int>,
#> #   patent_earliest_application_date <chr>,
#> #   patent_num_foreign_documents_cited <int>,
#> #   patent_num_times_cited_by_us_patents <int>, …
…
