Queries PatentsView API by CPC — patents_view • patentsview2
…
patents_view(cpc, from = "2000-01-01")

    Arguments

cpc

    Value

    a data frame of 38 fields

    Examples

patents_view(cpc="G16H", from="2023-01-01")
#> # A tibble: 1,556 × 38
#>    patent_id patent_title    patent_type patent_date patent_year patent_abstract
#>    <chr>     <chr>           <chr>       <chr>             <int> <chr>          
#>  1 11669966  System and met… utility     2023-06-06         2023 A system and m…
#>  2 11679052  Medical module… utility     2023-06-20         2023 An automated d…
#>  3 11688264  System and met… utility     2023-06-27         2023 A system and m…
#>  4 11688503  Method and dev… utility     2023-06-27         2023 The various em…
#>  5 11701282  Relocation mod… utility     2023-07-18         2023 Modules for ho…
#>  6 11715554  System and met… utility     2023-08-01         2023 A processor-im…
#>  7 11724061  Multi-modality… utility     2023-08-15         2023 A system and m…
#>  8 11730422  System for in-… utility     2023-08-22         2023 The present in…
#>  9 11737853  Methods and ap… utility     2023-08-29         2023 Described here…
#> 10 11744755  Relocation mod… utility     2023-09-05         2023 Modules for ho…
#> # ℹ 1,546 more rows
#> # ℹ 32 more variables:
#> #   patent_cpc_current_group_average_patent_processing_days <int>,
#> #   withdrawn <lgl>, patent_detail_desc_length <int>,
#> #   patent_earliest_application_date <chr>,
#> #   patent_num_foreign_documents_cited <int>,
#> #   patent_num_times_cited_by_us_patents <int>, …
…
